
{
    "_QPVersion": "0.1.0",
    "name": "PausePlus",
    "id": "pauseplus",
    "author": "MillzyG",
    "version": "0.1.0",
    "packageId": "com.beatgames.beatsaber",
    "packageVersion": "1.15.0",
    "type": "Gameplay",
    "modFiles": [
        "libpauseplus.so"
    ],
    "libraryFiles": [
        "libbeatsaber-hook_1_3_3.so"
    ]
}